[
  {
    "text": "",
    "heading": "true"
  },
  {
    "text": "Dashboard",
    "sref": "app.dashboard",
    "icon": "fa fa-bank"
  },
  {
    "text": "Admin Users",
    "sref": "#",
    "icon": "icon-user-follow",
    "submenu":[
      {
        "text": "Add Admin",
        "sref": "app.addadmin"

      },
      {
        "text": "List All",
        "sref": "app.listadmin"
      }
    ]
  },
  {
    "text": "Drivers",
    "sref": "#",
    "icon": "icon-users",
    "submenu":[
      {
        "text": "Add Driver",
        "sref": "app.add_driver"

      },
      {
        "text": "List All",
        "sref": "app.listview"
      },
      {
        "text": "Active Drivers",
        "sref": "app.activedrivers"
      },
      {
        "text": "Pending Drivers",
        "sref": "app.pendingdrivers"
      }
    ]
  },
  {
    "text": "Passengers",
    "sref": "app.mypassengers",
    "icon": "icon-user"
  },
  {
    "text": "Rides",
    "sref": "#",
    "icon": "fa fa-road",
    "submenu":[
      {
        "text": " All Rides",
        "sref": "app.myrides"

      }
    ]
  },
  {
    "text": "Vehicles",
    "sref": "#",
    "icon": "fa fa-car",
    "submenu":[
      {
        "text": "List All",
        "sref": "app.listvehicles"

      }
    ]
  }
]
